ST117 Introduction to Statistical Modelling - ST117 Lab 1
…
The penguins data from the palmerpenguins package contains size measurements for 344 penguins from three species observed on three islands in the Palmer Archipelago, Antarctica.

We will first install and load the packages:

install.packages("palmerpenguins")
library(palmerpenguins)

Let’s take a look at the penguins data:

penguins

# A tibble: 344 × 8
   species island    bill_length_mm bill_depth_mm flipper_length_mm body_mass_g
   <fct>   <fct>              <dbl>         <dbl>             <int>       <int>
 1 Adelie  Torgersen           39.1          18.7               181        3750
 2 Adelie  Torgersen           39.5          17.4               186        3800
 3 Adelie  Torgersen           40.3          18                 195        3250
 4 Adelie  Torgersen           NA            NA                  NA          NA
 5 Adelie  Torgersen           36.7          19.3               193        3450
 6 Adelie  Torgersen           39.3          20.6               190        3650
 7 Adelie  Torgersen           38.9          17.8               181        3625
 8 Adelie  Torgersen           39.2          19.6               195        4675
 9 Adelie  Torgersen           34.1          18.1               193        3475
10 Adelie  Torgersen           42            20.2               190        4250
# ℹ 334 more rows
# ℹ 2 more variables: sex <fct>, year <int>
…
count(penguins, species)

# A tibble: 3 × 2
  species       n
  <fct>     <int>
1 Adelie      152
2 Chinstrap    68
3 Gentoo      124

Filter the datasets to get the data for female Gentoos only:

filter(penguins, sex == "female", species == "Gentoo")

# A tibble: 58 × 8
   species island bill_length_mm bill_depth_mm flipper_length_mm body_mass_g
   <fct>   <fct>           <dbl>         <dbl>             <int>       <int>
 1 Gentoo  Biscoe           46.1          13.2               211        4500
 2 Gentoo  Biscoe           48.7          14.1               210        4450
 3 Gentoo  Biscoe           46.5          13.5               210        4550
 4 Gentoo  Biscoe           45.4          14.6               211        4800
 5 Gentoo  Biscoe           43.3          13.4               209        4400
 6 Gentoo  Biscoe           40.9          13.7               214        4650
 7 Gentoo  Biscoe           45.5          13.7               214        4650
 8 Gentoo  Biscoe           45.8          14.6               210        4200
 9 Gentoo  Biscoe           42            13.5               210        4150
10 Gentoo  Biscoe           46.2          14.5               209        4800
# ℹ 48 more rows
# ℹ 2 more variables: sex <fct>, year <int>
…
